…
# 得到了一个合并之后的结果
# 然后你只要与peakAnno做一次join即可，连接的key是feature_id
list.files("result",
           pattern = "csv$",
           full.names = TRUE) %>% 
  purrr::map(.f = ~readr::read_csv(., show_col_types = FALSE) %>% 
               select(contains(c("feature_id", "Fold",
                                 "p.value", "FDR")))
             ) %>% 
  purrr::reduce(inner_join, by = c("feature_id"))
## # A tibble: 19,554 × 10
##    feature_id    SIM3d_VS_CIM7d_Fold SIM3d_VS_CIM7d_p.value SIM3d_VS_CIM7d_FDR
##    <chr>                       <dbl>                  <dbl>              <dbl>
##  1 H3K27ac_17965                1.77               2.96e-69           5.79e-65
##  2 H3K27ac_10577                1.52               3.35e-62           3.28e-58
##  3 H3K27ac_16550                2.03               4.09e-60           2.67e-56
##  4 H3K27ac_8454                -1.89               8.39e-59           4.10e-55
##  5 H3K27ac_2996                 1.80               5.34e-57           2.09e-53
##  6 H3K27ac_13783               -1.95               2.10e-55           6.85e-52
##  7 H3K27ac_4626                -1.80               5.92e-55           1.65e-51
##  8 H3K27ac_9835                 1.47               2.94e-51           6.45e-48
##  9 H3K27ac_7995                -1.62               2.97e-51           6.45e-48
## 10 H3K27ac_7860                -2.26               1.61e-48           3.16e-45
## # … with 19,544 more rows, and 6 more variables: SIM8d_VS_CIM7d_Fold <dbl>,
## #   SIM8d_VS_CIM7d_p.value <dbl>, SIM8d_VS_CIM7d_FDR <dbl>,
## #   SIM8d_VS_SIM3d_Fold <dbl>, SIM8d_VS_SIM3d_p.value <dbl>,
## #   SIM8d_VS_SIM3d_FDR <dbl>
```
…
